<svg width="17" height="17" viewBox="0 0 17 17" fill="none" xmlns="http://www.w3.org/2000/svg">
<path d="M10.625 9.91669L14.1667 6.37503L10.625 2.83336" stroke="#DCAF27" stroke-linecap="round" stroke-linejoin="round"/>
<path d="M2.83301 14.1667V9.20833C2.83301 8.45689 3.13152 7.73622 3.66287 7.20486C4.19422 6.67351 4.91489 6.375 5.66634 6.375H14.1663" stroke="#DCAF27" stroke-linecap="round" stroke-linejoin="round"/>
</svg>
