<svg width="17" height="17" viewBox="0 0 17 17" fill="none" xmlns="http://www.w3.org/2000/svg">
<path d="M12.9294 15.0261C13.1089 15.3472 12.9956 15.7533 12.6744 15.9328C12.4667 16.0461 12.2494 16.1594 12.0322 16.2539C11.9472 16.2917 11.8528 16.3106 11.7583 16.3106C11.5033 16.3106 11.2672 16.1689 11.1539 15.9233C11.0028 15.5928 11.1539 15.1961 11.4844 15.045C11.6639 14.96 11.8528 14.8656 12.0228 14.7711C12.3439 14.5917 12.75 14.705 12.9294 15.0261ZM15.2244 12.6367C14.9317 12.4194 14.5161 12.4761 14.2989 12.7689C14.1761 12.9294 14.0533 13.09 13.9117 13.2411C13.6661 13.515 13.6944 13.94 13.9683 14.1761C14.0911 14.2894 14.2517 14.3461 14.4122 14.3461C14.5917 14.3461 14.7806 14.2706 14.9128 14.1194C15.0733 13.94 15.2244 13.7511 15.3661 13.5622C15.5739 13.2789 15.5172 12.8633 15.2244 12.6367ZM16.3294 9.52944C15.9706 9.45389 15.6211 9.68056 15.5361 10.0394C15.4889 10.2378 15.4417 10.4361 15.385 10.625C15.2811 10.9744 15.47 11.3428 15.8194 11.4561C15.8856 11.475 15.9517 11.4844 16.0178 11.4844C16.3011 11.4844 16.5656 11.305 16.6506 11.0122C16.7167 10.7856 16.7828 10.5494 16.83 10.3133C16.915 9.95444 16.6883 9.605 16.3294 9.52944ZM7.83889 3.19222V8.22611L5.40222 10.6628C5.14722 10.9178 5.14722 11.3428 5.40222 11.5978C5.53444 11.73 5.70444 11.7961 5.87444 11.7961C6.04444 11.7961 6.21444 11.73 6.34667 11.5978L8.97222 8.97222C9.095 8.84944 9.16111 8.67944 9.16111 8.5V3.19222C9.16111 2.82389 8.86833 2.53111 8.5 2.53111C8.13167 2.53111 7.83889 2.82389 7.83889 3.19222ZM16.3389 1.42611C15.9706 1.42611 15.6778 1.71889 15.6778 2.08722V3.92889C14.1289 1.51111 11.4278 0 8.5 0C6.23333 0 4.09889 0.887778 2.49333 2.49333C0.887778 4.09889 0 6.23333 0 8.5C0 10.7667 0.887778 12.9011 2.49333 14.5067C4.09889 16.1122 6.23333 17 8.5 17C8.50944 17 8.50944 17 8.51889 17C8.52833 17 8.52833 17 8.53778 17C8.77389 17 9.01944 16.9906 9.25556 16.9717C9.62389 16.9433 9.88833 16.6222 9.86 16.2539C9.83167 15.8856 9.51056 15.6211 9.14222 15.6494C8.94389 15.6683 8.73611 15.6778 8.53778 15.6778C8.52833 15.6778 8.52833 15.6778 8.51889 15.6778C8.50944 15.6778 8.50944 15.6778 8.5 15.6778C4.54278 15.6778 1.33167 12.4572 1.33167 8.50944C1.33167 4.56167 4.54278 1.33167 8.5 1.33167C11.05 1.33167 13.3922 2.69167 14.6767 4.85444H12.8444C12.4761 4.85444 12.1833 5.14722 12.1833 5.51556C12.1833 5.88389 12.4761 6.17667 12.8444 6.17667H14.875C15.2811 6.17667 15.6589 6.06333 15.98 5.865C15.9989 5.85556 16.0178 5.83667 16.0367 5.82722C16.6128 5.44944 17 4.78833 17 4.05167V2.08722C17 1.72833 16.7072 1.42611 16.3389 1.42611Z" fill="#777777"/>
</svg>
