<?xml version="1.0" standalone="no"?>
<!DOCTYPE svg PUBLIC "-//W3C//DTD SVG 1.1//EN" "http://www.w3.org/Graphics/SVG/1.1/DTD/svg11.dtd" >
<svg xmlns="http://www.w3.org/2000/svg">
<metadata>Generated by IcoMoon</metadata>
<defs>
<font id="icomoon" horiz-adv-x="1024">
<font-face units-per-em="1024" ascent="960" descent="-64" />
<missing-glyph horiz-adv-x="1024" />
<glyph unicode="&#x20;" horiz-adv-x="512" d="" />
<glyph unicode="&#xe900;" glyph-name="pen" d="M40.678-64c-10.642 0-21.040 4.224-28.757 11.861-9.586 9.583-13.81 23.398-11.129 36.642l57.433 287.197c1.625 7.962 5.361 15.193 11.129 20.798l631.841 631.916c47.441 47.446 124.857 47.446 172.294 0l114.867-114.879c47.522-47.528 47.522-124.791 0-172.319l-631.839-631.918c-5.606-5.683-12.835-9.506-20.796-11.127l-287.164-57.438c-2.6-0.486-5.28-0.734-7.88-0.734zM135.56 243.834l-43.054-215.375 215.352 43.059 623.146 623.22c15.846 15.843 15.846 41.597 0 57.44l-114.862 114.879c-15.84 15.843-41.592 15.843-57.433 0l-623.149-623.223zM327.842 34.065v0z" />
<glyph unicode="&#xe901;" glyph-name="search" d="M469.333 789.333c-164.949 0-298.667-133.718-298.667-298.667s133.718-298.667 298.667-298.667c164.949 0 298.667 133.717 298.667 298.667s-133.717 298.667-298.667 298.667zM85.333 490.667c0 212.077 171.923 384 384 384 212.079 0 384-171.923 384-384 0-212.079-171.921-384-384-384-212.077 0-384 171.921-384 384zM680.23 279.77c16.661 16.661 43.678 16.661 60.339 0l185.6-185.6c16.666-16.661 16.666-43.678 0-60.339-16.661-16.661-43.678-16.661-60.339 0l-185.6 185.6c-16.661 16.661-16.661 43.678 0 60.339z" />
<glyph unicode="&#xe902;" glyph-name="close" d="M798.17 734.17c16.661-16.663 16.661-43.677 0-60.34l-512-512c-16.663-16.661-43.677-16.661-60.34 0s-16.662 43.678 0 60.339l512 512c16.661 16.662 43.678 16.662 60.339 0zM225.83 734.17c16.663 16.662 43.677 16.662 60.34 0l512-512c16.661-16.661 16.661-43.678 0-60.339s-43.678-16.661-60.339 0l-512 512c-16.662 16.663-16.662 43.677 0 60.34z" />
<glyph unicode="&#xe903;" glyph-name="sao" d="M512.003 960l114.951-353.784h371.991l-300.946-218.65 114.951-353.783-300.946 218.65-300.945-218.65 114.951 353.783-300.946 218.65h371.989l114.951 353.784z" />
<glyph unicode="&#xe904;" glyph-name="check" horiz-adv-x="1280" d="M1195.246 879.177c26.056-23.884 27.817-64.369 3.932-90.425l-704-768c-12.123-13.224-29.238-20.753-47.178-20.753s-35.055 7.529-47.177 20.753l-320.001 349.092c-23.884 26.056-22.124 66.54 3.932 90.424s66.539 22.124 90.424-3.932l272.822-297.624 656.823 716.534c23.884 26.056 64.369 27.816 90.423 3.932z" />
</font></defs></svg>