<svg width="20" height="20" viewBox="0 0 20 20" fill="none" xmlns="http://www.w3.org/2000/svg">
<path fill-rule="evenodd" clip-rule="evenodd" d="M10.3536 2.14645C10.4473 2.24021 10.5 2.36739 10.5 2.5V4.02C11.9138 4.13824 13.24 4.75357 14.2432 5.75678C15.2464 6.75998 15.8618 8.08618 15.98 9.5H17.5C17.6326 9.5 17.7598 9.55268 17.8536 9.64645C17.9473 9.74021 18 9.86739 18 10C18 10.1326 17.9473 10.2598 17.8536 10.3536C17.7598 10.4473 17.6326 10.5 17.5 10.5H15.98C15.8616 11.9137 15.2462 13.2398 14.243 14.243C13.2398 15.2462 11.9137 15.8616 10.5 15.98V17.5C10.5 17.6326 10.4473 17.7598 10.3536 17.8536C10.2598 17.9473 10.1326 18 10 18C9.86739 18 9.74021 17.9473 9.64645 17.8536C9.55268 17.7598 9.5 17.6326 9.5 17.5V15.98C8.08618 15.8618 6.75998 15.2464 5.75678 14.2432C4.75357 13.24 4.13824 11.9138 4.02 10.5H2.5C2.36739 10.5 2.24021 10.4473 2.14645 10.3536C2.05268 10.2598 2 10.1326 2 10C2 9.86739 2.05268 9.74021 2.14645 9.64645C2.24021 9.55268 2.36739 9.5 2.5 9.5H4.02C4.13824 8.08618 4.75357 6.75998 5.75678 5.75678C6.75998 4.75357 8.08618 4.13824 9.5 4.02V2.5C9.5 2.36739 9.55268 2.24021 9.64645 2.14645C9.74021 2.05268 9.86739 2 10 2C10.1326 2 10.2598 2.05268 10.3536 2.14645ZM6.46447 13.5355C7.40215 14.4732 8.67392 15 10 15C11.3261 15 12.5979 14.4732 13.5355 13.5355C14.4732 12.5979 15 11.3261 15 10C15 8.67392 14.4732 7.40215 13.5355 6.46447C12.5979 5.52678 11.3261 5 10 5C8.67392 5 7.40215 5.52678 6.46447 6.46447C5.52678 7.40215 5 8.67392 5 10C5 11.3261 5.52678 12.5979 6.46447 13.5355Z" fill="#DCAF27"/>
</svg>
