<svg width="20" height="14" viewBox="0 0 20 14" fill="none" xmlns="http://www.w3.org/2000/svg">
<g clip-path="url(#clip0)">
<path d="M13.4008 13.8C13.1996 14 12.8977 14 12.6965 14C12.4953 13.9 12.294 13.7 12.294 13.5V10.6H10.5835C5.04936 10.5 0.62207 6.1 0.62207 0.6C0.62207 0.3 0.823311 0.1 1.02455 0C1.12517 0 1.12517 0 1.22579 0C1.42703 0 1.62827 0.1 1.72889 0.3L1.93013 0.6C3.54006 3.1 6.35742 4.7 9.37603 4.7H12.3946V1.8C12.3946 1.6 12.4953 1.4 12.7971 1.3C12.9984 1.2 13.3002 1.3 13.4008 1.4L19.2368 7.2C19.4381 7.4 19.4381 7.8 19.2368 8L13.4008 13.8ZM13.5015 3.2V5.2C13.5015 5.5 13.1996 5.8 12.8977 5.8H9.37603C6.55866 5.8 3.94254 4.6 2.13137 2.6C3.03696 6.4 6.55866 9.3 10.6841 9.3H12.9984C13.3002 9.3 13.6021 9.6 13.6021 9.9V12L18.0294 7.6L13.5015 3.2Z" fill="#DCAF27"/>
</g>
<defs>
<clipPath id="clip0">
<rect width="18.816" height="14" fill="white" transform="matrix(1 0 0 -1 0.62207 14)"/>
</clipPath>
</defs>
</svg>
