<svg width="15" height="15" viewBox="0 0 15 15" fill="none" xmlns="http://www.w3.org/2000/svg">
<path d="M13.1156 6.25C13.1156 10.625 7.49462 14.375 7.49462 14.375C7.49462 14.375 1.87366 10.625 1.87366 6.25C1.87366 4.75816 2.46586 3.32742 3.52 2.27252C4.57413 1.21763 6.00385 0.625 7.49462 0.625C8.98539 0.625 10.4151 1.21763 11.4692 2.27252C12.5234 3.32742 13.1156 4.75816 13.1156 6.25Z" stroke="#777777" stroke-linecap="round" stroke-linejoin="round"/>
<path d="M7.49463 8.125C8.52942 8.125 9.36828 7.28553 9.36828 6.25C9.36828 5.21447 8.52942 4.375 7.49463 4.375C6.45984 4.375 5.62097 5.21447 5.62097 6.25C5.62097 7.28553 6.45984 8.125 7.49463 8.125Z" stroke="#777777" stroke-linecap="round" stroke-linejoin="round"/>
</svg>
