<svg width="28" height="28" viewBox="0 0 28 28" fill="none" xmlns="http://www.w3.org/2000/svg">
<circle opacity="0.6" cx="14" cy="14" r="14" fill="white"/>
<path d="M17 20L11 14.5L17 9" stroke="#7C7C7C" stroke-linecap="round" stroke-linejoin="round"/>
</svg>
