<svg width="18" height="15" viewBox="0 0 18 15" fill="none" xmlns="http://www.w3.org/2000/svg">
<g clip-path="url(#clip0)">
<path d="M9.04951 15C8.78228 15 8.58186 14.933 8.38144 14.7321C7.71337 14.1295 7.0453 13.5938 6.44404 13.058C4.77387 11.5848 3.30411 10.3795 2.2352 9.10714C1.16629 7.83482 0.631836 6.49554 0.631836 5.08929C0.631836 3.68304 1.09948 2.41071 1.96797 1.47321C2.83646 0.535714 4.03899 0 5.30832 0C6.31043 0 7.17892 0.334821 7.9806 0.9375C8.38144 1.27232 8.71548 1.60714 9.04951 2.07589C9.38355 1.60714 9.71758 1.27232 10.1184 0.9375C10.9201 0.334821 11.7886 0 12.7907 0C14.06 0 15.2626 0.535714 16.131 1.47321C16.9995 2.41071 17.4672 3.68304 17.4672 5.08929C17.4672 6.49554 16.9327 7.83482 15.797 9.17411C14.7949 10.3795 13.3252 11.6518 11.5882 13.125C10.9869 13.5938 10.3188 14.1964 9.65077 14.7991C9.51716 14.933 9.31674 15 9.04951 15ZM5.30832 1.00446C4.30622 1.00446 3.37092 1.40625 2.63604 2.14286C1.96797 2.87946 1.63394 3.95089 1.63394 5.08929C1.63394 6.29464 2.10159 7.36607 3.10369 8.57143C4.03899 9.70982 5.50874 10.9821 7.17892 12.3884C7.78018 12.8571 8.44825 13.4598 9.11632 14.0625C9.78439 13.4598 10.4525 12.9241 11.0537 12.3884C12.7239 10.9821 14.1268 9.77679 15.1289 8.57143C16.131 7.36607 16.5987 6.29464 16.5987 5.08929C16.5987 3.95089 16.1979 2.87946 15.5298 2.14286C14.8617 1.40625 13.9264 1.00446 12.8575 1.00446C12.1226 1.00446 11.4546 1.27232 10.7865 1.74107C10.252 2.14286 9.85119 2.67857 9.65077 3.08036C9.45035 3.21429 9.24993 3.34821 9.04951 3.34821C8.84909 3.34821 8.64867 3.21429 8.51506 3.01339C8.31463 2.61161 7.91379 2.14286 7.37934 1.67411C6.77807 1.20536 6.11001 1.00446 5.30832 1.00446Z" fill="#777777"/>
</g>
<defs>
<clipPath id="clip0">
<rect width="16.8354" height="15" fill="white" transform="translate(0.631836)"/>
</clipPath>
</defs>
</svg>
